…
Let's walk through this line-by-line. First we use `mutate()` to create a new variable `x` which is a random number between zero and one. Then we call `collapse()` to execute this query in the database, yielding a table with the new variable 'x'. Next we choose all rows with `x` less than or equal to 0.01 and then we drop the `x` variable with the `select()` statement. Finally, we bring the table into R using `collect()`. Now we have a tibble `random` stored in the local machine's memory:

``` r
print(random)
```

    ## # A tibble: 65,474 x 5
    ##     year arrdelay depdelay distance uniquecarrier
    ##  * <int>    <int>    <int>    <int> <chr>        
    ##  1  2004       64       58      654 DH           
    ##  2  2003       60       54      160 DH           
    ##  3  2004        9       16      160 DH           
    ##  4  2007       30       28      692 EV           
    ##  5  2003       19       22      692 EV           
    ##  6  2006       30       40      692 EV           
    ##  7  2004      188      165      692 EV           
    ##  8  2005       44       56      503 EV           
    ##  9  2005        8       20      503 EV           
    ## 10  2007       21       22      692 EV           
    ## # ... with 65,464 more rows
…
